{
    "request": {
        "method": "GET",
        "url": "/api/jobs/4"
    },
    "response": {
        "status": 404,
		    "headers": {
          "Content-Type": "application/json"
        },
				"jsonBody": {
					"status":"Error",
					"message":"Job not found"
				}
    }
}
