{
    "request": {
        "method": "GET",
        "url": "/api/oauth2/token",
        "basicAuthCredentials" : {
          "username" : "wantsome",
          "password" : "wrong password"
        }
    },
    "response": {
        "status": 401,
		    "headers": {
          "Content-Type": "application/json"
        },
        "jsonBody": {
              "message": "You are not authorized"
          }

        }
}
