{
    "request": {
        "method": "DELETE",
        "url": "/api/companies/1"
    },
    "response": {
        "status": 401,
		    "headers": {
          "Content-Type": "application/json"
        },
        "jsonBody": {
              "message": "You are not authorized"
          }
    }
}
