{
    "request": {
        "method": "GET",
        "url": "/api/companies/1/jobs?active=false"
    },
    "response": {
        "status": 200,
		    "headers": {
          "Content-Type": "application/json"
        },
        "jsonBody": {
          "company": "Google",
          "country": "Ireland",
          "city": "Dublin",
          "availability": {
            "start_date": "2018-03-25",
            "end_date": "2018-03-25"
          },
          "total": 1,
          "stats": {
            "active": 2,
            "inactive": 1
          },
          "jobs": [
            {
              "id": 3,
              "position": "Developer",
              "level": "Middle",
              "language": "English",
              "salary": 3000,
              "active": false,
              "description": "Design and implement mobile applications"
              }
            ]
          }
    }
}
