{
    "request": {
        "method": "GET",
        "url": "/api/jobs/tester?active=true"
    },
    "response": {
        "status": 200,
		    "headers": {
          "Content-Type": "application/json"
        },
        "jsonBody": {
          "total": 1,
          "Domain": "Information Technology",
          "stats": {
            "active": 1,
            "inactive": 0
          },
          "jobs": [
            {
              "position": "Tester",
              "level": "Senior",
              "company": "Google",
              "country": "Ireland",
              "salary": 4000,
              "active": true,
              "description": "Design, plan and control test tasks in complex software development projects",
              "added": "{{now offset='-12 days' format='yyyy-MM-dd hh:mm:ss'}}"
            }
            ]
          }
    }
}
