{
    "request": {
        "method": "GET",
        "url": "/api/jobs/private"
    },
    "response": {
        "status": 200,
		    "headers": {
          "Content-Type": "application/json"
        },
        "jsonBody": {
          "total": 1,
          "Domain": "Science",
          "stats": {
            "active": 1,
            "inactive": 0
          },
          "jobs": [
            {
              "position": "Manager",
              "level": "Senior",
              "company": "NASA",
              "country": "USA",
              "salary": 20000,
              "active": true,
              "description": "Providing leadership, direction and management for the agency's initiatives",
              "added": "{{now offset='-19 days' format='yyyy-MM-dd hh:mm:ss'}}"
            }
            ]
          }
        }
}
